{
  "consumerKey": "2MNvm5QwQanHbdQuIAMSXXAWf",
  "consumerSecret": "DHfSWItFWxt7O93FhW8mhm7efRxZ3TO5WuOdDrjZ2XZm3PToPd",
  "accessToken": "30890659-TyBXHpIo6oRwqsMPQLoxZdOCdrYj08XiDtdUeHIRi",
  "accessTokenSecret": "rMd4LBGUByFlFcX8HfY5Wol4FKGxFJF41Uj2Qq64RskZI",
  "port": "7890"
}